{
  "type": "service_account",
  "project_id": "qplatform-301623",
  "private_key_id": "2b9f66ccd63434999f7f647556e08d3f619670a5",
  "private_key": "-----BEGIN PRIVATE KEY-----\nMIIEvgIBADANBgkqhkiG9w0BAQEFAASCBKgwggSkAgEAAoIBAQDPCDi9GhVu11Pm\n6jaQqlc5Tfr7kTV0mcQeCmRkYbvy2ugI26qQgmxfs2GytfL0bCAEPMfvwLiKkpQh\n4ZF4gkVe+G3TqgQAhPSTpKMAAI5Ts4QiNAPT4+UzqyMfbYHSVg43pqkfkvJ8yGLv\nMl7FfJ96XgmmWkTSn8AB8346qphZSYLnW+7rkMd8wKB0HjXRy3rsF2FkeE7vX7Yd\nQ123ErBwL3sThQzjNcKrSwTtut5VhgeqeCqwyNh83Gyp7aiTp9AT2siHMY+dl6jb\nSTpuv+a4YZ9Gqj54qID6CpIHmmjEePTh13LB6BY+9k3IvFr1ZYA/dHDsLfUs+3ih\niWKHJ82FAgMBAAECggEACwT4wiXwhJsM8fI+78HFTT1HkdrHgdqKW//5GneyQYmh\nxpDsme77NjfNyC2TjitwI9GZYbs8B1IodMo1DDlA2H54GAdJWb655t7hNyeQa8eX\nDZv/pShQ44hlIO/a9FdUv+UMxOu1IOuoims/rJrGwURelp5g4eYTWfc8HYLFg6ED\nraaBCBDsItlOOBXIobeP/yCNGad6QqMQ/cEaNplpOCXDyySPVz82n4pOQF6W3V3g\nUH6K+otRj7KoDVMBmBnJIczorEbbtAzPyQWghX/aOAr3snBj9htya1s1B0po09Qn\nLm6Qw80tBXgOKOZtDPPE/gPrdjLaPn9e2ZVx0g93WQKBgQD74iQ4u+JT1/cJE3VN\nuVDci0FyZQGKYwhY42LzWWIdm1g1dfgJZR3TFJO2Fwsq+xAaJIvlC6QPNJt2irpc\nqYRsYt49bAMGrkwayH3IQZK8Uo83IBDURwcE4y6lbkzVYGl5KRc05bHktCJ4F4+3\nP35P86Y4xxctXRGimHn9TH2yfQKBgQDSam0k3tQH0KRN+l+TKnaj1PPJTCZk/K0c\nLf/BTJAFOPtPdNSf2Bn2sFo6oBivYA6n55Pp1CoUtPIRZ96qmOMHQFS9qGFgcu+c\nP+9+ykZ8utRjm4UvX2CbUABs64pL8oKqvVaHQlsC39yTszkVJH7aAZQrjMiD3V83\nCnzq45EtqQKBgQC7Hl5mPz19p9x/Q5NLMDYgANuXze19DuDul820llxLPlIjNQYU\nhKfJXWn2RdwoC+cEZM4AU8uG+D/dqmWT3OLhWflbi9gbqHQlGXhHwl7txC9cdlfK\nOxG90b+fafduNHdmaN4yj8i97AwHRwmeym5dmtWLLGvNaWxma/uD7sUaSQKBgGRU\nTMCE41LqoD1yQbo5SCKsOqXkAnaqqJxELqvrpsxmtCXZzjx9XTvsMMm9ZqfQxIw4\n9qVK/dmrwbSc82YiyjW97eoU7IGBrFCzh63MIzn8F6N7F1FUSAsmZV2KHgJCmx1w\ndF7APAct2M4waepz4WxvzkfJtB50Ip9rB880PRgpAoGBAISFEmtXQK3iIvVBE6qD\nGmKi1AUm0K4HxWa2xaKG5L4JE/5n4Bgx4t6Lk/19KepHjo/ElNsL1bX6z4qXcpgj\nNKS5w9DrE1hHo5IydQfR43g+Z4jyZ3MX5o4fQmW5rZm1NFR7OhLV6gbPCRfTjrRf\nlFbPGZL69IJkN/ncmGc7BI9B\n-----END PRIVATE KEY-----\n",
  "client_email": "qp-robot@qplatform-301623.iam.gserviceaccount.com",
  "client_id": "110679521595441552989",
  "auth_uri": "https://accounts.google.com/o/oauth2/auth",
  "token_uri": "https://oauth2.googleapis.com/token",
  "auth_provider_x509_cert_url": "https://www.googleapis.com/oauth2/v1/certs",
  "client_x509_cert_url": "https://www.googleapis.com/robot/v1/metadata/x509/qp-robot%40qplatform-301623.iam.gserviceaccount.com"
}
